{
    "function_filters" : {
            "increment_a" : {
            "events" : [
                "function"
                ]
            },
            "__dinamite_tracepoint" : {
            "events" : [
                "access"
                ]
            }
    }
}
